[
    {
        "id": "training_disruption_category|1916",
        "parent": null,
        "name": "Family"
    },
    {
        "id": "training_disruption_category|5035",
        "parent": null,
        "name": "Expulsion"
    },
    {
        "id": "training_disruption_category|6532",
        "parent": null,
        "name": "Medical"
    },
    {
        "id": "training_disruption_category|7827",
        "parent": null,
        "name": "Financial"
    }
]